<?xml version="1.0" encoding="UTF-8" standalone="no"?>
<svg
   width="640"
   height="480"
   version="1.1"
   id="svg12"
   sodipodi:docname="wet-lab.svg"
   xml:space="preserve"
   inkscape:version="1.2.1 (9c6d41e410, 2022-07-14, custom)"
   xmlns:inkscape="http://www.inkscape.org/namespaces/inkscape"
   xmlns:sodipodi="http://sodipodi.sourceforge.net/DTD/sodipodi-0.dtd"
   xmlns="http://www.w3.org/2000/svg"
   xmlns:svg="http://www.w3.org/2000/svg"><defs
     id="defs16"><style
       id="style245">.cls-1{fill:#2b63b9;}.cls-2{fill:#f6f8fa;}.cls-3{fill:#274e81;}.cls-4{fill:#3980f0;}.cls-5{fill:#a6a9a8;}.cls-6{fill:#68a4f2;}.cls-7{fill:#dcdddf;}.cls-8{fill:#fefefe;}.cls-9{fill:#274d81;}.cls-10{fill:#fdfdfd;}.cls-11{fill:#f9f9f9;}</style></defs><sodipodi:namedview
     id="namedview14"
     pagecolor="#ffffff"
     bordercolor="#999999"
     borderopacity="1"
     inkscape:showpageshadow="0"
     inkscape:pageopacity="0"
     inkscape:pagecheckerboard="0"
     inkscape:deskcolor="#d1d1d1"
     showgrid="false"
     inkscape:zoom="1.01875"
     inkscape:cx="151.16564"
     inkscape:cy="65.766871"
     inkscape:window-width="2560"
     inkscape:window-height="1385"
     inkscape:window-x="0"
     inkscape:window-y="26"
     inkscape:window-maximized="1"
     inkscape:current-layer="svg12" /><title
     id="title2">erlenmeyer</title><g
     id="g10"
     transform="translate(16)"
     inkscape:export-filename="wet-lab.png"
     inkscape:export-xdpi="87.160004"
     inkscape:export-ydpi="87.160004"><path
       opacity="0.5"
       fill="#d7e9fc"
       fill-rule="evenodd"
       stroke="#9fabb9"
       stroke-width="2.5"
       stroke-linecap="round"
       stroke-linejoin="round"
       stroke-miterlimit="4"
       id="path29274"
       d="m 276.03125,64.828163 10.625,10.625 c 0,25.984247 0,40.735287 0,67.312487 -7.08661,10.62992 -48.43405,89.77436 -70.875,134.65626 -7.08661,14.17321 -7.06741,31.88928 3.5625,46.0625 7.08661,10.62988 19.46146,14.1875 31.875,14.1875 42.51971,0 85.04285,0 127.5625,0 12.41348,0 24.7883,-3.55756 31.875,-14.1875 10.62991,-14.17322 10.64911,-31.88929 3.5625,-46.0625 -20.0788,-44.8819 -43.70245,-89.77436 -63.78125,-134.65625 0,-25.98426 0,-41.32825 0,-67.312497 l 10.28125,-10.28125 0.34375,-0.34375 z" /><path
       fill="#ffd4aa"
       fill-rule="evenodd"
       stroke="#565e63"
       stroke-width="0.625"
       stroke-linecap="round"
       stroke-linejoin="round"
       stroke-miterlimit="4"
       id="path6798"
       d="m 236.40625,249.17191 c -14.78711,26.36914 1.1534,-0.94843 -14.375,29.0625 -6.64014,12.83307 -6.61649,28.85443 3.34375,41.6875 6.64017,9.62481 18.2435,12.84375 29.875,12.84375 39.84097,0 79.65906,0 119.5,0 11.63144,0 23.23477,-3.21894 29.875,-12.84375 9.96024,-12.83313 9.98389,-28.85443 3.34375,-41.6875 -15.89996,-34.34412 -0.0527,1.28369 -16.6875,-33.0625 z" /><path
       fill="#ffffff"
       fill-rule="evenodd"
       stroke-width="1px"
       id="path6038"
       d="m 337.9375,75.159088 c 0,22.916649 0,45.833312 0,68.750002 22.55377,47.69586 45.21667,95.36047 67.7038,143.07483 6.29116,14.89495 -1.55588,32.25555 -15.16468,39.88806 -12.13342,8.14392 -27.07828,4.99451 -40.74157,5.55688 -9.66797,0 -19.33594,0 -29.00388,0 17.30881,-2.22851 34.97061,-2.64886 52.04752,-6.09155 11.21591,-3.50128 24.84173,-9.74188 25.52682,-23.28979 0.70517,-14.46167 -8.3663,-26.69867 -13.19199,-39.76856 -17.39199,-39.78998 -34.78399,-79.57989 -52.17602,-119.36987 0,-22.91669 0,-45.833353 0,-68.750002 l 9.03735,-9.085266 h 5.03192 z" /><path
       fill="#000000"
       fill-opacity="0.176245"
       fill-rule="evenodd"
       stroke-width="1px"
       id="path1613"
       d="m 292.61356,75.159088 c 0,22.916649 0,45.833312 0,68.750002 -22.55381,47.69586 -49.68894,91.03558 -72.17606,138.75 -6.29115,14.89496 -1.25,35 11.25,43.75 12.5,6.25 8.75,5 22.87848,6.63843 9.66797,0 45.58594,-0.61866 55.2539,-0.61866 -17.3088,-2.22851 -34.97064,-2.64886 -52.04754,-6.09155 -11.2159,-3.50128 -24.84171,-9.74188 -25.52684,-23.28979 -0.70514,-14.46167 8.36633,-26.69867 13.192,-39.76856 17.392,-39.78998 34.78403,-79.57989 52.17606,-119.36987 0,-22.91669 0,-45.833353 0,-68.750002 l -9.03739,-9.085266 h -5.03192 z" /><title
       id="title8">Layer 1</title></g><g
     id="g292"
     transform="matrix(0.40539544,0,0,0.40539544,463.8785,63.575998)"><path
       d="m 737.63,303.08 36.2,-62.37 c 4.84,-8.33 9.56,-16.74 14.52,-25 1.47,-2.45 1.73,-4 -0.45,-6.36 -7.18,-7.94 -7.26,-13.36 -2.67,-22.27 3.47,-6.74 12.19,-9.48 21.09,-6.94 a 60.7,60.7 0 0 1 26,15.18 c 6.34,6.22 7.81,15 4.15,21.43 -4.15,7.32 -11.43,10.55 -20.5,8.51 -3.76,-0.84 -5.72,-0.21 -7.87,3.27 q -26.61,43.08 -53.76,85.81 c -2.13,3.36 -2,5.22 0.86,7.81 3.55,3.26 6.66,7 9.91,10.57 6.26,6.88 12.48,13.68 20.82,18.35 6.15,3.44 10.72,8.93 14.51,14.91 3.79,5.98 1.89,12.87 -4.45,15.35 a 12.1,12.1 0 0 0 -6.07,5.4 Q 726.38,486.42 662.66,586 c -1.14,1.78 -1.06,6.76 -5.83,4.19 a 13.88,13.88 0 0 0 -1.52,2.31 c -14.83,27.83 -38,40.85 -69.46,38.68 -3,-0.21 -3.69,1.68 -4.87,3.31 q -43.41,60.11 -86.76,120.25 c -0.77,1.08 -1.5,2.19 -2.32,3.25 -14.65,19 -24.89,40.72 -38.08,60.61 -8.93,13.47 -19.69,25.58 -29.37,38.49 -2.23,3 -3.69,0 -5.41,-0.56 -2,-0.65 -2,-1.85 -1.24,-3.83 11.45,-28.6 25.71,-55.78 41.34,-82.27 0.41,-0.7 1.07,-1.86 1.53,-1.83 5.63,0.42 5.95,-4.39 7.56,-7.7 q 35.29,-72.57 70.45,-145.21 a 20.65,20.65 0 0 0 2.26,-8.82 c 0.2,-8.41 3.84,-15.75 9.29,-22.09 a 9.61,9.61 0 0 0 2.52,-5.92 c 1.13,-12.28 6.58,-22.53 15.57,-30.89 a 24.53,24.53 0 0 0 5.13,-6.64 Q 631,432.52 688.64,323.78 a 6.29,6.29 0 0 0 0.24,-6 c -4.68,-11 -13.12,-17.46 -24.77,-19.36 -8.85,-1.45 -17.71,-0.94 -25.78,3.45 A 12.08,12.08 0 0 1 628,302.81 c -3.41,-1.15 -6.91,-2 -10.8,-3.08 10.54,-14 24.31,-22.15 40.53,-26.3 a 86.44,86.44 0 0 1 52,2.62 18.64,18.64 0 0 1 7.7,5.22 c 6.57,7.27 13.32,14.39 20.2,21.81 z"
       transform="translate(-417.31,-179.2)"
       id="path249" /><path
       class="cls-1"
       d="m 625.79,573.44 c -21.62,-23.29 -23.55,-24.46 -50,-30.11 4.77,-9.07 9.45,-18 14.18,-27 q 49,-92.69 97.92,-185.44 c 2.94,-5.63 6.7,-7.93 12.53,-8.77 24.39,-3.5 48.67,12.07 55.64,35.76 a 13.6,13.6 0 0 1 -1.62,12.2 Q 691.36,470 628.52,570 c -0.78,1.23 -1.23,2.77 -2.73,3.44 z"
       transform="translate(-417.31,-179.2)"
       id="path251" /><path
       class="cls-1"
       d="m 658.62,587 c -7.06,-10.42 -16.48,-14.19 -28.48,-12.83 1.76,-4.87 4.69,-8.5 7.12,-12.37 q 59.79,-95.13 119.56,-190.27 c 3.42,-5.46 7.46,-7.09 13.18,-6.4 a 24.52,24.52 0 0 1 18.12,11.09 c 1.93,2.82 1.86,5 -0.07,8.07 q -48,74.82 -95.7,149.82 z"
       transform="translate(-417.31,-179.2)"
       id="path253" /><path
       class="cls-2"
       d="m 475.58,775 c -0.93,-0.93 -1.71,-2.26 -2.83,-2.73 -5.39,-2.26 -4,-5.37 -2,-9.48 q 35.87,-73.63 71.37,-147.45 c 1.89,-3.93 3.45,-4.93 7.67,-2.91 9.7,4.64 18.58,10.31 26.22,17.9 1.5,1.49 2.62,2.53 0.9,4.91 q -50.34,69.51 -100.52,139.14 a 3.61,3.61 0 0 1 -0.81,0.62 z"
       transform="translate(-417.31,-179.2)"
       id="path255" /><path
       class="cls-3"
       d="m 679.37,274 c 6.09,-0.23 11.65,0.78 17.27,1.33 13.82,1.37 21.63,11.12 30.05,20.3 15.64,17.05 31.44,33.94 47.15,50.92 a 20.85,20.85 0 0 0 5.34,3.61 53.7,53.7 0 0 1 18.21,16.71 c 1.69,2.5 2.36,5.14 1.24,8 a 5.86,5.86 0 0 1 -4.24,3.92 c -2.29,0.44 -2.38,-1.94 -3.16,-3.23 -5.85,-9.68 -16.46,-15 -27.52,-13.08 -3.16,0.54 -3.48,-0.58 -4.14,-3 C 751.61,330.75 726.66,315 697,320 c -2.93,0.5 -4.11,-0.05 -5.35,-3 C 686,303.4 675.48,296.25 661,295.06 c -8.92,-0.73 -17.57,0.39 -25.62,4.78 -4,2.19 -7.77,-0.36 -11.33,-1.65 -1.83,-0.67 0.4,-2.17 1.14,-2.95 8.44,-8.94 18.84,-14.66 30.53,-18.12 7.8,-2.33 15.82,-3.7 23.65,-3.12 z"
       transform="translate(-417.31,-179.2)"
       id="path257" /><path
       class="cls-4"
       d="m 576.05,546.72 c 20.18,2.59 35.21,11.24 45.85,27.2 a 6.46,6.46 0 0 1 0.65,6.12 c -3.5,10.47 -10,18.64 -18.86,25.07 -2.26,1.64 -3.57,1.21 -5.43,-0.61 a 103.29,103.29 0 0 0 -38.65,-24 c -3.6,-1.26 -4.07,-3 -3.27,-6.23 A 48.36,48.36 0 0 1 571.53,549 c 1.72,-1.5 3.47,-2.54 4.52,-2.28 z"
       transform="translate(-417.31,-179.2)"
       id="path259" /><path
       class="cls-5"
       d="m 749.84,315.79 a 10.09,10.09 0 0 1 -1.32,-0.94 c -9,-9.09 -9,-9.08 -2.54,-20.18 l 49.8,-85.82 c 2.62,-4.52 6.65,-5.32 11.66,-2.35 5.29,3.13 6.59,7.17 3.73,11.74 q -29.38,46.9 -58.8,93.81 c -0.78,1.25 -1.65,2.44 -2.53,3.74 z"
       transform="translate(-417.31,-179.2)"
       id="path261" /><path
       class="cls-6"
       d="m 596.42,608.17 c -0.36,1 -0.74,2.09 -1.16,3.17 a 36.54,36.54 0 0 1 -8.9,13.08 c -5.92,5.7 -5.92,5.7 -12.09,0.18 a 84.52,84.52 0 0 0 -27.15,-16.37 c -2.87,-1.06 -3.68,-2.39 -2.83,-5.09 0.6,-1.9 1.07,-3.85 1.79,-5.7 5.74,-14.88 9.64,-16.43 23.72,-9.43 a 106,106 0 0 1 24.2,16.52 c 1.07,0.96 2.54,1.72 2.42,3.64 z"
       transform="translate(-417.31,-179.2)"
       id="path263" /><path
       class="cls-7"
       d="m 586.56,628.84 c 4.84,-5.25 8.73,-9.58 10.91,-15 0.85,-2.11 2.2,-1.57 3.57,-0.92 3.59,1.7 6.57,0.52 9.66,-1.52 11.29,-7.46 19.09,-17.47 22.5,-30.61 0.83,-3.24 2.23,-4.46 5.41,-3.66 a 52.49,52.49 0 0 1 5.77,1.5 c 9.73,3.7 11.38,7.9 6.1,16.68 -14.16,23.51 -35.38,33.97 -63.92,33.53 z"
       transform="translate(-417.31,-179.2)"
       id="path265" /><path
       class="cls-8"
       d="m 421.62,854.68 a 2.31,2.31 0 0 1 -0.19,-2.73 c 8.12,-17.61 14.78,-35.91 24.83,-52.62 4.88,-8.11 9.49,-16.39 13.88,-24.76 1.72,-3.27 3.73,-3.67 6.8,-2.51 6.45,2.44 7.72,6.4 4.25,12.42 -13.48,23.37 -28.3,45.8 -45.74,66.42 -1.12,1.32 -1.7,3.26 -3.83,3.78 z"
       transform="translate(-417.31,-179.2)"
       id="path267" /><path
       class="cls-9"
       d="m 812.38,221.61 c 4.16,-4.58 5,-8.68 1.56,-13.1 -4.07,-5.16 -9.25,-7.24 -15.76,-6.51 -3,0.33 -3.45,2.81 -4.58,4.71 -1.27,2.13 -2.54,2.57 -4,0.29 -2.21,-3.55 -6.15,-6.8 -3.79,-11.58 2.36,-4.78 7.16,-3.83 11.09,-3.27 12.58,1.79 22.69,8.07 30.24,18.28 2,2.65 3.94,5.74 1.88,9.15 -2.06,3.41 -5.75,3.63 -9.3,3.37 -2.08,-0.16 -4.17,-0.75 -7.34,-1.34 z"
       transform="translate(-417.31,-179.2)"
       id="path269" /><path
       class="cls-10"
       d="m 833.45,215.26 c -9.49,-18.11 -24.66,-26.62 -45,-26.48 1.92,-4.71 7.8,-7.87 14.13,-6.45 a 54.61,54.61 0 0 1 29.22,17 c 4.52,5 4.71,10.72 1.65,15.93 z"
       transform="translate(-417.31,-179.2)"
       id="path271" /><path
       class="cls-11"
       d="m 602.32,609.56 c 11.3,-7.12 19.26,-16.41 23,-28.88 0.91,-3 2.91,-3 5.11,-3.26 -0.56,13.99 -19.23,35.63 -28.11,32.14 z"
       transform="translate(-417.31,-179.2)"
       id="path273" /></g><path
     inkscape:connector-curvature="0"
     id="path5929"
     d="m 57.215451,338.66117 c -0.63628,-0.63629 -0.33464,-11.6219 0.37264,-13.57178 0.86093,-2.37346 3.51751,-5.16715 5.83384,-6.13498 1.5027,-0.62785 12.49025,-0.76242 61.424619,-0.75226 56.59972,0.0117 59.70897,0.0643 61.87136,1.04656 2.5688,1.16686 5.12869,3.91948 5.73557,6.16747 0.22358,0.8282 0.41365,4.16777 0.42236,7.42122 l 0.0158,5.9154 -67.64919,0.14311 c -37.207059,0.0788 -67.819219,-0.0269 -68.027039,-0.23474 z m 55.771459,-24.22722 c -0.20657,-0.20656 -0.37558,-5.69623 -0.37558,-12.19926 v -11.82368 l -2.29209,-1.96196 c -1.26066,-1.07906 -3.07191,-3.34366 -4.02499,-5.03245 -0.95308,-1.68877 -2.01316,-3.14733 -2.35571,-3.24123 -18.396829,-5.043 -29.419279,-11.24751 -41.485579,-23.35221 -6.59445,-6.61542 -10.47705,-11.65778 -14.8889,-19.33626 l -1.53756,-2.67602 h 12.33534 12.33532 l 3.21308,3.90568 c 7.10021,8.63069 18.66294,16.14348 30.475499,19.8012 l 3.3235,1.02909 2.59189,-2.30613 c 7.80813,-6.94734 18.99138,-7.37122 27.35997,-1.03706 l 3.47723,2.6319 3.06016,-1.03868 c 23.20111,-7.87503 40.46882,-29.59261 43.36982,-54.54616 2.47538,-21.29234 -6.97961,-43.93123 -24.0059,-57.47946 -3.51034,-2.79328 -3.60624,-2.82999 -5.21693,-1.99707 -0.90247,0.46669 -3.13242,1.08396 -4.95543,1.3717 -6.78427,1.0708 -13.62418,-1.09199 -18.52893,-5.85887 -1.41629,-1.37646 -2.653,-2.50267 -2.74825,-2.50267 -0.0953,0 -9.6188,10.63343 -21.16344,23.62983 l -20.990259,23.62981 -12.37264,-11.03301 -12.37265,-11.03304 1.92829,-2.03357 c 1.06056,-1.11848 18.22464,-20.41358 38.142419,-42.878 19.91777,-22.46441 36.66036,-41.31856 37.20575,-41.89809 0.9596,-1.01969 1.38521,-0.70313 13.18003,9.80333 6.70363,5.97138 12.11668,11.06156 12.02901,11.31151 -0.0877,0.24995 -1.77609,2.25778 -3.75205,4.46183 l -3.59266,4.00736 1.90254,1.62717 c 1.0464,0.89494 2.07873,1.63747 2.29406,1.65006 0.21535,0.0126 1.42783,1.47008 2.69441,3.23884 2.51845,3.51697 3.89231,7.44118 4.04079,11.54181 0.0888,2.45328 0.28234,2.77923 2.66614,4.49116 7.64012,5.48671 14.9647,13.20539 20.76024,21.87717 15.39728,23.03879 18.41458,53.94867 7.78162,79.71697 -9.50314,23.03028 -29.42858,41.5446 -52.79205,49.05333 -4.85104,1.55907 -4.88787,1.58518 -6.19709,4.39424 -0.72436,1.55422 -2.52124,4.03231 -3.99305,5.50687 l -2.67601,2.68101 v 12.1393 12.13929 h -11.73689 c -6.45529,0 -11.9059,-0.16899 -12.11247,-0.37558 z m 17.93807,-27.99087 c 2.91436,-1.35714 5.72184,-4.10132 7.44215,-7.27434 0.70555,-1.30136 0.99082,-3.11364 0.99644,-6.33032 0.007,-3.89504 -0.19955,-4.85981 -1.51986,-7.10572 -3.22316,-5.48272 -8.04529,-8.12601 -14.08133,-7.71878 -1.95005,0.13156 -4.47079,0.68566 -5.60166,1.23129 -2.72649,1.31556 -5.82766,4.47967 -7.23019,7.37691 -1.57681,3.25722 -1.56017,9.20971 0.035,12.50475 1.4042,2.9007 5.9028,7.09374 8.50354,7.92598 3.41351,1.09233 8.36709,0.82866 11.45599,-0.60977 z m -9.58141,-4.56638 c -5.87696,-2.14429 -8.14754,-9.22128 -4.63216,-14.43773 3.9827,-5.90995 13.43918,-5.40008 16.42185,0.88545 3.79384,7.99489 -3.63054,16.52925 -11.78969,13.55228 z m 36.94537,-143.19918 c 5.21527,-2.8385 8.37323,-8.22912 8.39362,-14.32781 0.0237,-7.09563 -3.27584,-12.5324 -9.44412,-15.56142 -4.30307,-2.11308 -10.29972,-2.21135 -14.33794,-0.23495 -3.40355,1.66577 -6.71442,4.97664 -8.38019,8.38019 -1.78168,3.64038 -1.84187,9.98465 -0.13018,13.72269 4.25709,9.29683 14.95693,12.88808 23.89881,8.0213 z m -12.15704,-6.07189 c -8.32858,-3.71753 -7.01549,-15.80984 1.9388,-17.85444 4.17619,-0.9536 9.42683,2.00714 10.76837,6.07206 2.58634,7.83667 -5.25601,15.10827 -12.70717,11.78238 z M 5.570861,230.8673 c -0.6197,-0.61972 -1.12674,-1.50703 -1.12674,-1.97181 0,-0.46478 0.50704,-1.35209 1.12674,-1.97179 1.11064,-1.11065 1.87791,-1.12675 53.67657,-1.12675 46.649889,0 52.690399,0.0984 53.801919,0.87701 1.55426,1.08864 1.6029,2.71578 0.12535,4.19334 -1.11068,1.11067 -1.8779,1.12673 -53.801909,1.12673 -51.92402,0 -52.69125,-0.016 -53.80193,-1.12673 z M 158.25853,82.72777 c -4.48509,-3.99621 -8.22381,-7.47512 -8.30825,-7.73087 -0.0844,-0.25576 0.54744,-2.92965 1.40418,-5.94197 l 1.55773,-5.47693 12.10255,10.74119 c 6.6564,5.90765 12.17784,10.81372 12.26986,10.90238 0.1309,0.1261 -7.48791,3.49621 -10.30799,4.55963 -0.30985,0.11684 -4.23299,-3.0572 -8.71808,-7.05343 z"
     style="fill:#ec672a;fill-opacity:1;stroke-width:1.05945" /></svg>
