<?xml version="1.0" encoding="UTF-8" standalone="no"?>
<!-- Created with Inkscape (http://www.inkscape.org/) -->

<svg
   width="210mm"
   height="297mm"
   viewBox="0 0 210 297"
   version="1.1"
   id="svg5"
   inkscape:version="1.2.1 (9c6d41e410, 2022-07-14, custom)"
   sodipodi:docname="sets.svg"
   inkscape:export-filename="tuple.png"
   inkscape:export-xdpi="190"
   inkscape:export-ydpi="190"
   xmlns:inkscape="http://www.inkscape.org/namespaces/inkscape"
   xmlns:sodipodi="http://sodipodi.sourceforge.net/DTD/sodipodi-0.dtd"
   xmlns="http://www.w3.org/2000/svg"
   xmlns:svg="http://www.w3.org/2000/svg">
  <sodipodi:namedview
     id="namedview7"
     pagecolor="#2f2f2f"
     bordercolor="#999999"
     borderopacity="1"
     inkscape:showpageshadow="0"
     inkscape:pageopacity="0"
     inkscape:pagecheckerboard="0"
     inkscape:deskcolor="#d1d1d1"
     inkscape:document-units="mm"
     showgrid="false"
     inkscape:zoom="2.587745"
     inkscape:cx="168.48646"
     inkscape:cy="202.10647"
     inkscape:window-width="1920"
     inkscape:window-height="1025"
     inkscape:window-x="0"
     inkscape:window-y="26"
     inkscape:window-maximized="1"
     inkscape:current-layer="g1098" />
  <defs
     id="defs2" />
  <g
     inkscape:label="Layer 1"
     inkscape:groupmode="layer"
     id="layer1">
    <text
       xml:space="preserve"
       style="font-style:normal;font-weight:normal;font-size:10.5833px;line-height:1.25;font-family:sans-serif;letter-spacing:2.32833px;word-spacing:0px;fill:#ffffff;fill-opacity:1;stroke:none;stroke-width:0.264583"
       x="21.672972"
       y="48.325378"
       id="text236"
       inkscape:export-filename="set.png"
       inkscape:export-xdpi="190"
       inkscape:export-ydpi="190"><tspan
         sodipodi:role="line"
         id="tspan234"
         style="font-style:normal;font-variant:normal;font-weight:normal;font-stretch:normal;font-family:'Ubuntu Mono';-inkscape-font-specification:'Ubuntu Mono';fill:#ffffff;fill-opacity:1;stroke-width:0.264583"
         x="21.672972"
         y="48.325378">mafft</tspan></text>
    <g
       id="g1098">
      <rect
         style="fill:none;stroke:#336cdf;stroke-width:0.384887;stroke-linecap:round;stroke-miterlimit:10;stroke-opacity:1"
         id="rect340"
         width="7.7151136"
         height="10.064114"
         x="20.30652"
         y="39.694958" />
      <rect
         style="fill:none;stroke:#336cdf;stroke-width:0.384887;stroke-linecap:round;stroke-miterlimit:10;stroke-opacity:1"
         id="rect1058"
         width="7.7151136"
         height="10.064114"
         x="28.021591"
         y="39.694958" />
      <rect
         style="fill:none;stroke:#336cdf;stroke-width:0.384887;stroke-linecap:round;stroke-miterlimit:10;stroke-opacity:1"
         id="rect1060"
         width="7.7151136"
         height="10.064114"
         x="35.754608"
         y="39.694958" />
      <rect
         style="fill:none;stroke:#336cdf;stroke-width:0.384887;stroke-linecap:round;stroke-miterlimit:10;stroke-opacity:1"
         id="rect1068"
         width="7.7151136"
         height="10.064114"
         x="43.487606"
         y="39.694958" />
      <rect
         style="fill:none;stroke:#336cdf;stroke-width:0.384887;stroke-linecap:round;stroke-miterlimit:10;stroke-opacity:1"
         id="rect1070"
         width="7.7151136"
         height="10.064114"
         x="51.202679"
         y="39.694958" />
      <text
         xml:space="preserve"
         style="font-style:normal;font-weight:normal;font-size:10.5833px;line-height:1.25;font-family:sans-serif;letter-spacing:2.32833px;word-spacing:0px;fill:#ffffff;fill-opacity:1;stroke:none;stroke-width:0.264583"
         x="21.672728"
         y="59.773727"
         id="text236-3"
         inkscape:export-filename="string.png"
         inkscape:export-xdpi="190"
         inkscape:export-ydpi="190"><tspan
           sodipodi:role="line"
           id="tspan234-6"
           style="font-style:normal;font-variant:normal;font-weight:normal;font-stretch:normal;font-family:'Ubuntu Mono';-inkscape-font-specification:'Ubuntu Mono';fill:#ffffff;fill-opacity:1;stroke-width:0.264583"
           x="21.672728"
           y="59.773727">clustal</tspan></text>
      <rect
         style="fill:none;stroke:#336cdf;stroke-width:0.384887;stroke-linecap:round;stroke-miterlimit:10;stroke-opacity:1"
         id="rect340-7"
         width="7.7151136"
         height="10.064114"
         x="20.306276"
         y="51.143307" />
      <rect
         style="fill:none;stroke:#336cdf;stroke-width:0.384887;stroke-linecap:round;stroke-miterlimit:10;stroke-opacity:1"
         id="rect1058-5"
         width="7.7151136"
         height="10.064114"
         x="28.021343"
         y="51.143307" />
      <rect
         style="fill:none;stroke:#336cdf;stroke-width:0.384887;stroke-linecap:round;stroke-miterlimit:10;stroke-opacity:1"
         id="rect1060-3"
         width="7.7151136"
         height="10.064114"
         x="35.754364"
         y="51.143307" />
      <rect
         style="fill:none;stroke:#336cdf;stroke-width:0.384887;stroke-linecap:round;stroke-miterlimit:10;stroke-opacity:1"
         id="rect1068-5"
         width="7.7151136"
         height="10.064114"
         x="43.487362"
         y="51.143307" />
      <rect
         style="fill:none;stroke:#336cdf;stroke-width:0.384887;stroke-linecap:round;stroke-miterlimit:10;stroke-opacity:1"
         id="rect1070-6"
         width="7.7151136"
         height="10.064114"
         x="51.202435"
         y="51.143307" />
      <rect
         style="fill:none;stroke:#336cdf;stroke-width:0.384887;stroke-linecap:round;stroke-miterlimit:10;stroke-opacity:1"
         id="rect1072-2"
         width="7.7151136"
         height="10.064114"
         x="58.935455"
         y="51.143307" />
      <rect
         style="fill:none;stroke:#336cdf;stroke-width:0.384887;stroke-linecap:round;stroke-miterlimit:10;stroke-opacity:1"
         id="rect1074-9"
         width="7.7151136"
         height="10.064114"
         x="66.674019"
         y="51.143307" />
      <text
         xml:space="preserve"
         style="font-style:normal;font-weight:normal;font-size:10.5833px;line-height:1.25;font-family:sans-serif;letter-spacing:2.32833px;word-spacing:0px;fill:#ffffff;fill-opacity:1;stroke:none;stroke-width:0.264583"
         x="21.672728"
         y="71.415405"
         id="text598"
         inkscape:export-filename="string.png"
         inkscape:export-xdpi="190"
         inkscape:export-ydpi="190"><tspan
           sodipodi:role="line"
           id="tspan596"
           style="font-style:normal;font-variant:normal;font-weight:normal;font-stretch:normal;font-family:'Ubuntu Mono';-inkscape-font-specification:'Ubuntu Mono';fill:#ffffff;fill-opacity:1;stroke-width:0.264583"
           x="21.672728"
           y="71.415405">muscle</tspan></text>
      <rect
         style="fill:none;stroke:#336cdf;stroke-width:0.384887;stroke-linecap:round;stroke-miterlimit:10;stroke-opacity:1"
         id="rect600"
         width="7.7151136"
         height="10.064114"
         x="20.306276"
         y="62.784985" />
      <rect
         style="fill:none;stroke:#336cdf;stroke-width:0.384887;stroke-linecap:round;stroke-miterlimit:10;stroke-opacity:1"
         id="rect602"
         width="7.7151136"
         height="10.064114"
         x="28.021343"
         y="62.784985" />
      <rect
         style="fill:none;stroke:#336cdf;stroke-width:0.384887;stroke-linecap:round;stroke-miterlimit:10;stroke-opacity:1"
         id="rect604"
         width="7.7151136"
         height="10.064114"
         x="35.754364"
         y="62.784985" />
      <rect
         style="fill:none;stroke:#336cdf;stroke-width:0.384887;stroke-linecap:round;stroke-miterlimit:10;stroke-opacity:1"
         id="rect606"
         width="7.7151136"
         height="10.064114"
         x="43.487362"
         y="62.784985" />
      <rect
         style="fill:none;stroke:#336cdf;stroke-width:0.384887;stroke-linecap:round;stroke-miterlimit:10;stroke-opacity:1"
         id="rect608"
         width="7.7151136"
         height="10.064114"
         x="51.202435"
         y="62.784985" />
      <rect
         style="fill:none;stroke:#336cdf;stroke-width:0.384887;stroke-linecap:round;stroke-miterlimit:10;stroke-opacity:1"
         id="rect610"
         width="7.7151136"
         height="10.064114"
         x="58.935455"
         y="62.784985" />
      <text
         xml:space="preserve"
         style="font-style:normal;font-weight:normal;font-size:53.5096px;line-height:1.25;font-family:sans-serif;letter-spacing:0px;word-spacing:0px;fill:#dfde33;fill-opacity:1;stroke:none;stroke-width:0;stroke-dasharray:none;stroke-opacity:1"
         x="4.2529097"
         y="72.617676"
         id="text313"><tspan
           sodipodi:role="line"
           id="tspan311"
           style="font-style:normal;font-variant:normal;font-weight:normal;font-stretch:normal;font-size:53.5096px;font-family:'Ubuntu Condensed';-inkscape-font-specification:'Ubuntu Condensed, ';fill:#dfde33;fill-opacity:1;stroke:none;stroke-width:0;stroke-dasharray:none;stroke-opacity:1"
           x="4.2529097"
           y="72.617676">{</tspan></text>
    </g>
  </g>
</svg>
