<?xml version="1.0" encoding="UTF-8" standalone="no"?>
<!-- Created with Inkscape (http://www.inkscape.org/) -->

<svg
   width="210mm"
   height="297mm"
   viewBox="0 0 210 297"
   version="1.1"
   id="svg5"
   inkscape:version="1.2.1 (9c6d41e410, 2022-07-14, custom)"
   sodipodi:docname="for_loop.svg"
   inkscape:export-filename="while_loop.png"
   inkscape:export-xdpi="190"
   inkscape:export-ydpi="190"
   xmlns:inkscape="http://www.inkscape.org/namespaces/inkscape"
   xmlns:sodipodi="http://sodipodi.sourceforge.net/DTD/sodipodi-0.dtd"
   xmlns:xlink="http://www.w3.org/1999/xlink"
   xmlns="http://www.w3.org/2000/svg"
   xmlns:svg="http://www.w3.org/2000/svg">
  <sodipodi:namedview
     id="namedview7"
     pagecolor="#313131"
     bordercolor="#999999"
     borderopacity="1"
     inkscape:showpageshadow="0"
     inkscape:pageopacity="0"
     inkscape:pagecheckerboard="0"
     inkscape:deskcolor="#d1d1d1"
     inkscape:document-units="mm"
     showgrid="false"
     inkscape:zoom="0.914906"
     inkscape:cx="181.4394"
     inkscape:cy="535.57415"
     inkscape:window-width="2560"
     inkscape:window-height="1385"
     inkscape:window-x="0"
     inkscape:window-y="26"
     inkscape:window-maximized="1"
     inkscape:current-layer="layer1" />
  <defs
     id="defs2">
    <linearGradient
       inkscape:collect="always"
       id="linearGradient19470">
      <stop
         style="stop-color:#b7b7b7;stop-opacity:1;"
         offset="0"
         id="stop19466" />
      <stop
         style="stop-color:#319952;stop-opacity:1;"
         offset="1"
         id="stop19468" />
    </linearGradient>
    <marker
       style="overflow:visible"
       id="marker5680"
       refX="0"
       refY="0"
       orient="auto-start-reverse"
       inkscape:stockid="Arrow1L"
       markerWidth="5"
       markerHeight="2"
       viewBox="0 0 8.75 5"
       inkscape:isstock="true"
       inkscape:collect="always"
       preserveAspectRatio="none">
      <path
         style="fill:context-stroke;fill-rule:evenodd;stroke:none"
         d="M 0,0 5,-5 -12.5,0 5,5 Z"
         id="path5678"
         transform="scale(-0.5)" />
    </marker>
    <marker
       style="overflow:visible"
       id="Arrow1L"
       refX="0"
       refY="0"
       orient="auto-start-reverse"
       inkscape:stockid="Arrow1L"
       markerWidth="5"
       markerHeight="2.5"
       viewBox="0 0 8.75 5"
       inkscape:isstock="true"
       inkscape:collect="always"
       preserveAspectRatio="xMidYMid">
      <path
         style="fill:context-stroke;fill-rule:evenodd;stroke:none"
         d="M 0,0 5,-5 -12.5,0 5,5 Z"
         id="arrow1L"
         transform="scale(-0.5)" />
    </marker>
    <linearGradient
       inkscape:collect="always"
       xlink:href="#linearGradient19470"
       id="linearGradient19472"
       x1="98.660912"
       y1="132.61195"
       x2="150.54657"
       y2="95.798981"
       gradientUnits="userSpaceOnUse"
       gradientTransform="matrix(1.1071689,0,0,1.2863352,-16.641064,29.786064)" />
  </defs>
  <g
     inkscape:label="Layer 1"
     inkscape:groupmode="layer"
     id="layer1">
    <path
       style="fill:none;stroke:#b7b7b7;stroke-width:2;stroke-linecap:butt;stroke-linejoin:miter;stroke-dasharray:none;stroke-opacity:1;marker-end:url(#Arrow1L)"
       d="m 80.841702,256.49074 v 33.5246"
       id="path1433"
       inkscape:export-filename="if_statement.png"
       inkscape:export-xdpi="83.334465"
       inkscape:export-ydpi="83.334465" />
    <path
       style="fill:none;stroke:url(#linearGradient19472);stroke-width:2;stroke-linecap:butt;stroke-linejoin:miter;stroke-dasharray:none;stroke-opacity:1"
       d="m 118.60105,119.80871 32.86217,-0.43349 -0.0399,137.89099 -71.300234,0.2204"
       id="path1435"
       sodipodi:nodetypes="cccc" />
    <g
       id="g32789"
       transform="translate(18.577271,103.18754)">
      <rect
         style="fill:#ffe873;fill-opacity:1;stroke:#4b8bbe;stroke-width:1.2;stroke-linecap:round;stroke-miterlimit:10;stroke-dasharray:none;stroke-opacity:1"
         id="rect32781"
         width="78.200592"
         height="27.541883"
         x="20.228865"
         y="121.50886" />
      <text
         xml:space="preserve"
         style="font-style:normal;font-weight:normal;font-size:10.5833px;line-height:1.25;font-family:sans-serif;letter-spacing:0px;word-spacing:0px;fill:#000000;fill-opacity:1;stroke:none;stroke-width:0.264583"
         x="59.450867"
         y="132.58305"
         id="text32787"><tspan
           sodipodi:role="line"
           id="tspan32783"
           style="font-style:normal;font-variant:normal;font-weight:normal;font-stretch:normal;font-family:Ubuntu;-inkscape-font-specification:Ubuntu;text-align:center;text-anchor:middle;stroke-width:0.264583"
           x="59.450867"
           y="132.58305">Increment</tspan><tspan
           sodipodi:role="line"
           style="font-style:normal;font-variant:normal;font-weight:normal;font-stretch:normal;font-family:Ubuntu;-inkscape-font-specification:Ubuntu;text-align:center;text-anchor:middle;stroke-width:0.264583"
           x="59.450867"
           y="146.05154"
           id="tspan32785">variable</tspan></text>
    </g>
    <path
       style="fill:none;stroke:#b7b7b7;stroke-width:2;stroke-linecap:butt;stroke-linejoin:miter;stroke-dasharray:none;stroke-opacity:1;marker-end:url(#Arrow1L)"
       d="m 77.906438,211.33775 v 10.32942"
       id="path32793"
       sodipodi:nodetypes="cc"
       inkscape:export-filename="if_statement.png"
       inkscape:export-xdpi="83.334465"
       inkscape:export-ydpi="83.334465" />
    <g
       id="g553"
       transform="translate(18.577271,65.616669)">
      <rect
         style="fill:#ffe873;fill-opacity:1;stroke:#4b8bbe;stroke-width:1.2;stroke-linecap:round;stroke-miterlimit:10;stroke-dasharray:none;stroke-opacity:1"
         id="rect494"
         width="78.200592"
         height="27.541883"
         x="20.228865"
         y="118.86303" />
      <text
         xml:space="preserve"
         style="font-style:normal;font-weight:normal;font-size:10.5833px;line-height:1.25;font-family:sans-serif;letter-spacing:0px;word-spacing:0px;fill:#000000;fill-opacity:1;stroke:none;stroke-width:0.264583"
         x="59.450867"
         y="129.93726"
         id="text440-7"><tspan
           sodipodi:role="line"
           id="tspan438-1"
           style="font-style:normal;font-variant:normal;font-weight:normal;font-stretch:normal;font-family:Ubuntu;-inkscape-font-specification:Ubuntu;text-align:center;text-anchor:middle;stroke-width:0.264583"
           x="59.450867"
           y="129.93726">Body of</tspan><tspan
           sodipodi:role="line"
           style="font-style:normal;font-variant:normal;font-weight:normal;font-stretch:normal;font-family:Ubuntu;-inkscape-font-specification:Ubuntu;text-align:center;text-anchor:middle;stroke-width:0.264583"
           x="59.450867"
           y="143.40575"
           id="tspan442-1">loop</tspan></text>
    </g>
    <path
       style="fill:none;stroke:#bb1f1f;stroke-width:2;stroke-linecap:butt;stroke-linejoin:miter;stroke-dasharray:none;stroke-opacity:1;marker-end:url(#Arrow1L)"
       d="m 77.906438,150.92643 v 28.34641"
       id="path1431"
       sodipodi:nodetypes="cc"
       inkscape:export-filename="if_statement.png"
       inkscape:export-xdpi="83.334465"
       inkscape:export-ydpi="83.334465" />
    <g
       id="g4056"
       transform="translate(20.10834,49.741669)">
      <rect
         style="fill:#ffe873;fill-opacity:1;stroke:#4b8bbe;stroke-width:1.23007;stroke-linecap:round;stroke-miterlimit:10;stroke-dasharray:none;stroke-opacity:1"
         id="rect384"
         width="56.899582"
         height="56.899582"
         x="66.855469"
         y="-4.6414347"
         transform="matrix(0.80839997,0.58863357,-0.80839997,0.58863357,0,0)" />
      <text
         xml:space="preserve"
         style="font-style:normal;font-weight:normal;font-size:10.5833px;line-height:1.25;font-family:sans-serif;letter-spacing:0px;word-spacing:0px;fill:#000000;fill-opacity:1;stroke:none;stroke-width:0.264583"
         x="57.919796"
         y="66.978348"
         id="text440"><tspan
           sodipodi:role="line"
           id="tspan438"
           style="font-style:normal;font-variant:normal;font-weight:normal;font-stretch:normal;font-family:Ubuntu;-inkscape-font-specification:Ubuntu;text-align:center;text-anchor:middle;stroke-width:0.264583"
           x="57.919796"
           y="66.978348">Termination</tspan><tspan
           sodipodi:role="line"
           style="font-style:normal;font-variant:normal;font-weight:normal;font-stretch:normal;font-family:Ubuntu;-inkscape-font-specification:Ubuntu;text-align:center;text-anchor:middle;stroke-width:0.264583"
           x="57.919796"
           y="80.446838"
           id="tspan442">condition</tspan></text>
    </g>
    <path
       style="fill:none;stroke:#b7b7b7;stroke-width:2;stroke-linecap:butt;stroke-linejoin:miter;stroke-dasharray:none;stroke-opacity:1;marker-end:url(#marker5680)"
       d="M 38.258492,238.5722 H 12.705403 V 119.932 h 16.858796"
       id="path5676" />
    <text
       xml:space="preserve"
       style="font-style:normal;font-weight:normal;font-size:10.5833px;line-height:1.25;font-family:sans-serif;letter-spacing:0px;word-spacing:0px;fill:#bb1f1f;fill-opacity:1;stroke:none;stroke-width:0.264583"
       x="91.705956"
       y="170.40683"
       id="text440-6"><tspan
         sodipodi:role="line"
         style="font-style:normal;font-variant:normal;font-weight:normal;font-stretch:normal;font-family:Ubuntu;-inkscape-font-specification:Ubuntu;text-align:center;text-anchor:middle;fill:#bb1f1f;fill-opacity:1;stroke-width:0.264583"
         x="91.705956"
         y="170.40683"
         id="tspan442-6">False</tspan></text>
    <text
       xml:space="preserve"
       style="font-style:normal;font-weight:normal;font-size:10.5833px;line-height:1.25;font-family:sans-serif;letter-spacing:0px;word-spacing:0px;fill:#319952;fill-opacity:1;stroke:none;stroke-width:0.264583"
       x="137.49007"
       y="131.11205"
       id="text1612"><tspan
         sodipodi:role="line"
         style="font-style:normal;font-variant:normal;font-weight:normal;font-stretch:normal;font-family:Ubuntu;-inkscape-font-specification:Ubuntu;text-align:center;text-anchor:middle;fill:#319952;fill-opacity:1;stroke-width:0.264583"
         x="137.49007"
         y="131.11205"
         id="tspan1610">True</tspan></text>
    <path
       style="fill:none;stroke:#b7b7b7;stroke-width:2;stroke-linecap:butt;stroke-linejoin:miter;stroke-dasharray:none;stroke-opacity:1;marker-end:url(#Arrow1L)"
       d="M 77.906438,58.509193 V 84.551977"
       id="path30965" />
    <g
       id="g30963"
       transform="translate(18.577271,-87.841672)"
       inkscape:export-filename="for_loop.png"
       inkscape:export-xdpi="68.779999"
       inkscape:export-ydpi="68.779999">
      <rect
         style="fill:#ffe873;fill-opacity:1;stroke:#4b8bbe;stroke-width:1.2;stroke-linecap:round;stroke-miterlimit:10;stroke-dasharray:none;stroke-opacity:1"
         id="rect30955"
         width="78.200592"
         height="27.541883"
         x="20.228865"
         y="118.86303" />
      <text
         xml:space="preserve"
         style="font-style:normal;font-weight:normal;font-size:10.5833px;line-height:1.25;font-family:sans-serif;letter-spacing:0px;word-spacing:0px;fill:#000000;fill-opacity:1;stroke:none;stroke-width:0.264583"
         x="59.450867"
         y="129.93726"
         id="text30961"><tspan
           sodipodi:role="line"
           id="tspan30957"
           style="font-style:normal;font-variant:normal;font-weight:normal;font-stretch:normal;font-family:Ubuntu;-inkscape-font-specification:Ubuntu;text-align:center;text-anchor:middle;stroke-width:0.264583"
           x="59.450867"
           y="129.93726">Variable</tspan><tspan
           sodipodi:role="line"
           style="font-style:normal;font-variant:normal;font-weight:normal;font-stretch:normal;font-family:Ubuntu;-inkscape-font-specification:Ubuntu;text-align:center;text-anchor:middle;stroke-width:0.264583"
           x="59.450867"
           y="143.40575"
           id="tspan30959">initialization</tspan></text>
    </g>
    <path
       style="fill:none;stroke:#b7b7b7;stroke-width:2;stroke-linecap:butt;stroke-linejoin:miter;stroke-dasharray:none;stroke-opacity:1;marker-end:url(#Arrow1L)"
       d="M 77.906438,1.8883552 V 27.931141"
       id="path615"
       inkscape:export-filename="for_loop.png"
       inkscape:export-xdpi="56.080002"
       inkscape:export-ydpi="56.080002" />
  </g>
</svg>
